{

    "implement_class":"SpecifiedInputRateStreamInput",
    "class_argument":{
    },
    "information_source_schema":{
        "id":"performanceTestStream1",
        "type":"object",
        "properties":{
            "A":{
                "type":"number"
            },
	    "B":{
		"type":"number"
	    }
        }
    }

}
